…
Flights that have a missing tailnum all have missing values of arr_time, meaning that the flight was canceled.

flights %>%
  filter(is.na(tailnum), !is.na(arr_time)) %>%
  nrow()
#> [1] 0
Many of the tail numbers that don’t have a matching value in planes are registered to American Airlines (AA) or Envoy Airlines (MQ). The documentation for planes states

American Airways (AA) and Envoy Air (MQ) report fleet numbers rather than tail numbers so can’t be matched.

flights %>%
  anti_join(planes, by = "tailnum") %>%
  count(carrier, sort = TRUE) %>%
  mutate(p = n / sum(n))
#> # A tibble: 10 x 3
#>   carrier     n      p
#>   <chr>   <int>  <dbl>
#> 1 MQ      25397 0.483 
#> 2 AA      22558 0.429 
#> 3 UA       1693 0.0322
#> 4 9E       1044 0.0198
#> 5 B6        830 0.0158
#> 6 US        699 0.0133
#> # … with 4 more rows
…
